{
    "m_SGVersion": 3,
    "m_Type": "UnityEditor.ShaderGraph.GraphData",
    "m_ObjectId": "605456c77bc944c0939db0528e743b6f",
    "m_Properties": [
        {
            "m_Id": "b65be7c96f4e48968e9a0fdab4225857"
        },
        {
            "m_Id": "72a18e37480644e788f8241d630eb9f5"
        },
        {
            "m_Id": "f118e8ca36044adfbdf267d13b0482c8"
        },
        {
            "m_Id": "160c6a160d8e419c912c2e8f9306cd87"
        },
        {
            "m_Id": "d4e91c1da7c24cbfb73cc75e1669b2a2"
        }
    ],
    "m_Keywords": [],
    "m_Dropdowns": [],
    "m_CategoryData": [
        {
            "m_Id": "d9680b00c61b44d0876f1085aadd7afd"
        }
    ],
    "m_Nodes": [
        {
            "m_Id": "ed09fb8425714c0ea6f50786281d22e9"
        },
        {
            "m_Id": "300ea6b5be96494bbe81e6d5b7d6141b"
        },
        {
            "m_Id": "4aa5cd8855784370825bebec6bd8e02e"
        },
        {
            "m_Id": "78aa392d1fbb4a7fa4273aa5780bb14a"
        },
        {
            "m_Id": "2049183f92b1451497e8cb451b466049"
        },
        {
            "m_Id": "c28e1dc494d5435da04df11b91a77d9c"
        },
        {
            "m_Id": "adc673f682b04347aa1b4cc4bf3cbb24"
        },
        {
            "m_Id": "ee4c3c77904f482f825f874882cb2b79"
        },
        {
            "m_Id": "a2e415ab0eff483a81ce560723d0866a"
        },
        {
            "m_Id": "b9a023cba13248a4a94d18384b52746e"
        },
        {
            "m_Id": "dd34c117244b45b984bb6bb3d3ce304b"
        },
        {
            "m_Id": "d778360b4f5b485fa9f2a9ea83dbd1af"
        },
        {
            "m_Id": "5abbd0758fac4db1ae8fd68105471d54"
        },
        {
            "m_Id": "429d53de8d9d4bb294a3f15039472426"
        },
        {
            "m_Id": "0c2c7e04fef74549a2a401bebf80f283"
        },
        {
            "m_Id": "7106fb9d0a3d407db2256b18a022eed7"
        },
        {
            "m_Id": "748d89ae59cb4575960a5c4ba4986814"
        },
        {
            "m_Id": "023a4dbdd6ec4b93b40681e85469e3af"
        },
        {
            "m_Id": "8acc139ea75d4ee5a3672bd716d0e2c1"
        }
    ],
    "m_GroupDatas": [],
    "m_StickyNoteDatas": [],
    "m_Edges": [
        {
            "m_OutputSlot": {
                "m_Node": {
                    "m_Id": "2049183f92b1451497e8cb451b466049"
                },
                "m_SlotId": 3
            },
            "m_InputSlot": {
                "m_Node": {
                    "m_Id": "a2e415ab0eff483a81ce560723d0866a"
                },
                "m_SlotId": 0
            }
        },
        {
            "m_OutputSlot": {
                "m_Node": {
                    "m_Id": "78aa392d1fbb4a7fa4273aa5780bb14a"
                },
                "m_SlotId": 0
            },
            "m_InputSlot": {
                "m_Node": {
                    "m_Id": "d778360b4f5b485fa9f2a9ea83dbd1af"
                },
                "m_SlotId": 0
            }
        },
        {
            "m_OutputSlot": {
                "m_Node": {
                    "m_Id": "a2e415ab0eff483a81ce560723d0866a"
                },
                "m_SlotId": 2
            },
            "m_InputSlot": {
                "m_Node": {
                    "m_Id": "b9a023cba13248a4a94d18384b52746e"
                },
                "m_SlotId": 0
            }
        },
        {
            "m_OutputSlot": {
                "m_Node": {
                    "m_Id": "adc673f682b04347aa1b4cc4bf3cbb24"
                },
                "m_SlotId": 2
            },
            "m_InputSlot": {
                "m_Node": {
                    "m_Id": "2049183f92b1451497e8cb451b466049"
                },
                "m_SlotId": 1
            }
        },
        {
            "m_OutputSlot": {
                "m_Node": {
                    "m_Id": "b9a023cba13248a4a94d18384b52746e"
                },
                "m_SlotId": 2
            },
            "m_InputSlot": {
                "m_Node": {
                    "m_Id": "d778360b4f5b485fa9f2a9ea83dbd1af"
                },
                "m_SlotId": 1
            }
        },
        {
            "m_OutputSlot": {
                "m_Node": {
                    "m_Id": "c28e1dc494d5435da04df11b91a77d9c"
                },
                "m_SlotId": 0
            },
            "m_InputSlot": {
                "m_Node": {
                    "m_Id": "adc673f682b04347aa1b4cc4bf3cbb24"
                },
                "m_SlotId": 0
            }
        },
        {
            "m_OutputSlot": {
                "m_Node": {
                    "m_Id": "d778360b4f5b485fa9f2a9ea83dbd1af"
                },
                "m_SlotId": 2
            },
            "m_InputSlot": {
                "m_Node": {
                    "m_Id": "300ea6b5be96494bbe81e6d5b7d6141b"
                },
                "m_SlotId": 0
            }
        },
        {
            "m_OutputSlot": {
                "m_Node": {
                    "m_Id": "dd34c117244b45b984bb6bb3d3ce304b"
                },
                "m_SlotId": 0
            },
            "m_InputSlot": {
                "m_Node": {
                    "m_Id": "b9a023cba13248a4a94d18384b52746e"
                },
                "m_SlotId": 1
            }
        },
        {
            "m_OutputSlot": {
                "m_Node": {
                    "m_Id": "ee4c3c77904f482f825f874882cb2b79"
                },
                "m_SlotId": 0
            },
            "m_InputSlot": {
                "m_Node": {
                    "m_Id": "2049183f92b1451497e8cb451b466049"
                },
                "m_SlotId": 2
            }
        }
    ],
    "m_VertexContext": {
        "m_Position": {
            "x": 1094.39990234375,
            "y": -816.7999267578125
        },
        "m_Blocks": [
            {
                "m_Id": "5abbd0758fac4db1ae8fd68105471d54"
            },
            {
                "m_Id": "429d53de8d9d4bb294a3f15039472426"
            },
            {
                "m_Id": "0c2c7e04fef74549a2a401bebf80f283"
            }
        ]
    },
    "m_FragmentContext": {
        "m_Position": {
            "x": 1094.39990234375,
            "y": -545.5999145507813
        },
        "m_Blocks": [
            {
                "m_Id": "ed09fb8425714c0ea6f50786281d22e9"
            },
            {
                "m_Id": "300ea6b5be96494bbe81e6d5b7d6141b"
            },
            {
                "m_Id": "4aa5cd8855784370825bebec6bd8e02e"
            },
            {
                "m_Id": "7106fb9d0a3d407db2256b18a022eed7"
            },
            {
                "m_Id": "748d89ae59cb4575960a5c4ba4986814"
            },
            {
                "m_Id": "023a4dbdd6ec4b93b40681e85469e3af"
            },
            {
                "m_Id": "8acc139ea75d4ee5a3672bd716d0e2c1"
            }
        ]
    },
    "m_PreviewData": {
        "serializedMesh": {
            "m_SerializedMesh": "{\"mesh\":{\"fileID\":10202,\"guid\":\"0000000000000000e000000000000000\",\"type\":0}}",
            "m_Guid": ""
        },
        "preventRotation": false
    },
    "m_Path": "Shader Graphs",
    "m_GraphPrecision": 0,
    "m_PreviewMode": 2,
    "m_OutputNode": {
        "m_Id": ""
    },
    "m_ActiveTargets": [
        {
            "m_Id": "dc4ea0f307b849af9723f5581b839d65"
        }
    ]
}

{
    "m_SGVersion": 0,
    "m_Type": "UnityEditor.ShaderGraph.BlockNode",
    "m_ObjectId": "023a4dbdd6ec4b93b40681e85469e3af",
    "m_Group": {
        "m_Id": ""
    },
    "m_Name": "SurfaceDescription.Occlusion",
    "m_DrawState": {
        "m_Expanded": true,
        "m_Position": {
            "serializedVersion": "2",
            "x": 0.0,
            "y": 0.0,
            "width": 0.0,
            "height": 0.0
        }
    },
    "m_Slots": [
        {
            "m_Id": "3567787ea68e4898b818befc92843363"
        }
    ],
    "synonyms": [],
    "m_Precision": 0,
    "m_PreviewExpanded": true,
    "m_DismissedVersion": 0,
    "m_PreviewMode": 0,
    "m_CustomColors": {
        "m_SerializableColors": []
    },
    "m_SerializedDescriptor": "SurfaceDescription.Occlusion"
}

{
    "m_SGVersion": 0,
    "m_Type": "UnityEditor.ShaderGraph.BlockNode",
    "m_ObjectId": "0c2c7e04fef74549a2a401bebf80f283",
    "m_Group": {
        "m_Id": ""
    },
    "m_Name": "VertexDescription.Tangent",
    "m_DrawState": {
        "m_Expanded": true,
        "m_Position": {
            "serializedVersion": "2",
            "x": 0.0,
            "y": 0.0,
            "width": 0.0,
            "height": 0.0
        }
    },
    "m_Slots": [
        {
            "m_Id": "58eff5b787a14387896afc3c1605a9ee"
        }
    ],
    "synonyms": [],
    "m_Precision": 0,
    "m_PreviewExpanded": true,
    "m_DismissedVersion": 0,
    "m_PreviewMode": 0,
    "m_CustomColors": {
        "m_SerializableColors": []
    },
    "m_SerializedDescriptor": "VertexDescription.Tangent"
}

{
    "m_SGVersion": 1,
    "m_Type": "UnityEditor.ShaderGraph.Internal.Vector2ShaderProperty",
    "m_ObjectId": "160c6a160d8e419c912c2e8f9306cd87",
    "m_Guid": {
        "m_GuidSerialized": "a9799e28-656a-4d93-a841-42ae54601195"
    },
    "m_Name": "Z",
    "m_DefaultRefNameVersion": 1,
    "m_RefNameGeneratedByDisplayName": "Z",
    "m_DefaultReferenceName": "_Z",
    "m_OverrideReferenceName": "",
    "m_GeneratePropertyBlock": true,
    "m_UseCustomSlotLabel": false,
    "m_CustomSlotLabel": "",
    "m_DismissedVersion": 0,
    "m_Precision": 0,
    "overrideHLSLDeclaration": false,
    "hlslDeclarationOverride": 0,
    "m_Hidden": false,
    "m_Value": {
        "x": 10.0,
        "y": 10.0,
        "z": 0.0,
        "w": 0.0
    }
}

{
    "m_SGVersion": 0,
    "m_Type": "UnityEditor.ShaderGraph.DynamicVectorMaterialSlot",
    "m_ObjectId": "17716ca6417b4c898fb1e55a3e6a3bf0",
    "m_Id": 0,
    "m_DisplayName": "A",
    "m_SlotType": 0,
    "m_Hidden": false,
    "m_ShaderOutputName": "A",
    "m_StageCapability": 3,
    "m_Value": {
        "x": 0.0,
        "y": 0.0,
        "z": 0.0,
        "w": 0.0
    },
    "m_DefaultValue": {
        "x": 0.0,
        "y": 0.0,
        "z": 0.0,
        "w": 0.0
    }
}

{
    "m_SGVersion": 0,
    "m_Type": "UnityEditor.ShaderGraph.DynamicValueMaterialSlot",
    "m_ObjectId": "1e496d3f56c34b7c8e99524c2546bf0c",
    "m_Id": 0,
    "m_DisplayName": "A",
    "m_SlotType": 0,
    "m_Hidden": false,
    "m_ShaderOutputName": "A",
    "m_StageCapability": 3,
    "m_Value": {
        "e00": 0.0,
        "e01": 0.0,
        "e02": 0.0,
        "e03": 0.0,
        "e10": 0.0,
        "e11": 0.0,
        "e12": 0.0,
        "e13": 0.0,
        "e20": 0.0,
        "e21": 0.0,
        "e22": 0.0,
        "e23": 0.0,
        "e30": 0.0,
        "e31": 0.0,
        "e32": 0.0,
        "e33": 0.0
    },
    "m_DefaultValue": {
        "e00": 1.0,
        "e01": 0.0,
        "e02": 0.0,
        "e03": 0.0,
        "e10": 0.0,
        "e11": 1.0,
        "e12": 0.0,
        "e13": 0.0,
        "e20": 0.0,
        "e21": 0.0,
        "e22": 1.0,
        "e23": 0.0,
        "e30": 0.0,
        "e31": 0.0,
        "e32": 0.0,
        "e33": 1.0
    }
}

{
    "m_SGVersion": 0,
    "m_Type": "UnityEditor.ShaderGraph.DynamicVectorMaterialSlot",
    "m_ObjectId": "1efbf71e5c454cffa9c968ff1d59a7c7",
    "m_Id": 2,
    "m_DisplayName": "Out",
    "m_SlotType": 1,
    "m_Hidden": false,
    "m_ShaderOutputName": "Out",
    "m_StageCapability": 3,
    "m_Value": {
        "x": 0.0,
        "y": 0.0,
        "z": 0.0,
        "w": 0.0
    },
    "m_DefaultValue": {
        "x": 0.0,
        "y": 0.0,
        "z": 0.0,
        "w": 0.0
    }
}

{
    "m_SGVersion": 1,
    "m_Type": "UnityEditor.ShaderGraph.VoronoiNode",
    "m_ObjectId": "2049183f92b1451497e8cb451b466049",
    "m_Group": {
        "m_Id": ""
    },
    "m_Name": "Voronoi",
    "m_DrawState": {
        "m_Expanded": true,
        "m_Position": {
            "serializedVersion": "2",
            "x": -116.00000762939453,
            "y": -392.0,
            "width": 207.99996948242188,
            "height": 359.1999816894531
        }
    },
    "m_Slots": [
        {
            "m_Id": "ca49ddec51ee43b7adbefd23027f0e3b"
        },
        {
            "m_Id": "cd11037ced034de2a4be23b7c9cc3971"
        },
        {
            "m_Id": "ca865dc89ec9493d82bf526ece767c89"
        },
        {
            "m_Id": "35530edc7f6b4e43ad7b78806083e7e2"
        },
        {
            "m_Id": "9446d055cc4d4881a01036409f8596ac"
        }
    ],
    "synonyms": [
        "worley noise"
    ],
    "m_Precision": 0,
    "m_PreviewExpanded": true,
    "m_DismissedVersion": 0,
    "m_PreviewMode": 0,
    "m_CustomColors": {
        "m_SerializableColors": []
    },
    "m_HashType": 0
}

{
    "m_SGVersion": 0,
    "m_Type": "UnityEditor.ShaderGraph.DynamicVectorMaterialSlot",
    "m_ObjectId": "2479afcde9844d43914aea39d6a5a209",
    "m_Id": 2,
    "m_DisplayName": "Out",
    "m_SlotType": 1,
    "m_Hidden": false,
    "m_ShaderOutputName": "Out",
    "m_StageCapability": 3,
    "m_Value": {
        "x": 0.0,
        "y": 0.0,
        "z": 0.0,
        "w": 0.0
    },
    "m_DefaultValue": {
        "x": 0.0,
        "y": 0.0,
        "z": 0.0,
        "w": 0.0
    }
}

{
    "m_SGVersion": 0,
    "m_Type": "UnityEditor.ShaderGraph.DynamicVectorMaterialSlot",
    "m_ObjectId": "28b0ca7011714c498035dc46ccf19fc9",
    "m_Id": 1,
    "m_DisplayName": "B",
    "m_SlotType": 0,
    "m_Hidden": false,
    "m_ShaderOutputName": "B",
    "m_StageCapability": 3,
    "m_Value": {
        "x": 0.0,
        "y": 0.0,
        "z": 0.0,
        "w": 0.0
    },
    "m_DefaultValue": {
        "x": 0.0,
        "y": 0.0,
        "z": 0.0,
        "w": 0.0
    }
}

{
    "m_SGVersion": 0,
    "m_Type": "UnityEditor.ShaderGraph.BlockNode",
    "m_ObjectId": "300ea6b5be96494bbe81e6d5b7d6141b",
    "m_Group": {
        "m_Id": ""
    },
    "m_Name": "SurfaceDescription.NormalTS",
    "m_DrawState": {
        "m_Expanded": true,
        "m_Position": {
            "serializedVersion": "2",
            "x": 0.0,
            "y": 0.0,
            "width": 0.0,
            "height": 0.0
        }
    },
    "m_Slots": [
        {
            "m_Id": "5850c2111907495b95515842f5b8e0a9"
        }
    ],
    "synonyms": [],
    "m_Precision": 0,
    "m_PreviewExpanded": true,
    "m_DismissedVersion": 0,
    "m_PreviewMode": 0,
    "m_CustomColors": {
        "m_SerializableColors": []
    },
    "m_SerializedDescriptor": "SurfaceDescription.NormalTS"
}

{
    "m_SGVersion": 0,
    "m_Type": "UnityEditor.ShaderGraph.ColorRGBMaterialSlot",
    "m_ObjectId": "30a1e18a84e540209a4ee47c0f7ec993",
    "m_Id": 0,
    "m_DisplayName": "Base Color",
    "m_SlotType": 0,
    "m_Hidden": false,
    "m_ShaderOutputName": "BaseColor",
    "m_StageCapability": 2,
    "m_Value": {
        "x": 0.0,
        "y": 0.8949611186981201,
        "z": 1.0
    },
    "m_DefaultValue": {
        "x": 0.0,
        "y": 0.0,
        "z": 0.0
    },
    "m_Labels": [],
    "m_ColorMode": 0,
    "m_DefaultColor": {
        "r": 0.5,
        "g": 0.5,
        "b": 0.5,
        "a": 1.0
    }
}

{
    "m_SGVersion": 0,
    "m_Type": "UnityEditor.ShaderGraph.DynamicVectorMaterialSlot",
    "m_ObjectId": "3184d514e080478cb262676181f9fcc7",
    "m_Id": 1,
    "m_DisplayName": "B",
    "m_SlotType": 0,
    "m_Hidden": false,
    "m_ShaderOutputName": "B",
    "m_StageCapability": 3,
    "m_Value": {
        "x": 3.0,
        "y": 2.0,
        "z": 2.0,
        "w": 2.0
    },
    "m_DefaultValue": {
        "x": 0.0,
        "y": 0.0,
        "z": 0.0,
        "w": 0.0
    }
}

{
    "m_SGVersion": 0,
    "m_Type": "UnityEditor.ShaderGraph.Vector1MaterialSlot",
    "m_ObjectId": "35530edc7f6b4e43ad7b78806083e7e2",
    "m_Id": 3,
    "m_DisplayName": "Out",
    "m_SlotType": 1,
    "m_Hidden": false,
    "m_ShaderOutputName": "Out",
    "m_StageCapability": 3,
    "m_Value": 0.0,
    "m_DefaultValue": 0.0,
    "m_Labels": []
}

{
    "m_SGVersion": 0,
    "m_Type": "UnityEditor.ShaderGraph.Vector1MaterialSlot",
    "m_ObjectId": "3567787ea68e4898b818befc92843363",
    "m_Id": 0,
    "m_DisplayName": "Ambient Occlusion",
    "m_SlotType": 0,
    "m_Hidden": false,
    "m_ShaderOutputName": "Occlusion",
    "m_StageCapability": 2,
    "m_Value": 1.0,
    "m_DefaultValue": 1.0,
    "m_Labels": []
}

{
    "m_SGVersion": 0,
    "m_Type": "UnityEditor.ShaderGraph.BlockNode",
    "m_ObjectId": "429d53de8d9d4bb294a3f15039472426",
    "m_Group": {
        "m_Id": ""
    },
    "m_Name": "VertexDescription.Normal",
    "m_DrawState": {
        "m_Expanded": true,
        "m_Position": {
            "serializedVersion": "2",
            "x": 0.0,
            "y": 0.0,
            "width": 0.0,
            "height": 0.0
        }
    },
    "m_Slots": [
        {
            "m_Id": "43d1affe03ef4d779187560454c111d8"
        }
    ],
    "synonyms": [],
    "m_Precision": 0,
    "m_PreviewExpanded": true,
    "m_DismissedVersion": 0,
    "m_PreviewMode": 0,
    "m_CustomColors": {
        "m_SerializableColors": []
    },
    "m_SerializedDescriptor": "VertexDescription.Normal"
}

{
    "m_SGVersion": 0,
    "m_Type": "UnityEditor.ShaderGraph.NormalMaterialSlot",
    "m_ObjectId": "43d1affe03ef4d779187560454c111d8",
    "m_Id": 0,
    "m_DisplayName": "Normal",
    "m_SlotType": 0,
    "m_Hidden": false,
    "m_ShaderOutputName": "Normal",
    "m_StageCapability": 1,
    "m_Value": {
        "x": 0.0,
        "y": 0.0,
        "z": 0.0
    },
    "m_DefaultValue": {
        "x": 0.0,
        "y": 0.0,
        "z": 0.0
    },
    "m_Labels": [],
    "m_Space": 0
}

{
    "m_SGVersion": 0,
    "m_Type": "UnityEditor.ShaderGraph.Vector1MaterialSlot",
    "m_ObjectId": "43f45febcae34cbc860cb44bb43b873f",
    "m_Id": 0,
    "m_DisplayName": "Time",
    "m_SlotType": 1,
    "m_Hidden": false,
    "m_ShaderOutputName": "Time",
    "m_StageCapability": 3,
    "m_Value": 0.0,
    "m_DefaultValue": 0.0,
    "m_Labels": []
}

{
    "m_SGVersion": 0,
    "m_Type": "UnityEditor.ShaderGraph.Vector1MaterialSlot",
    "m_ObjectId": "4a3403b7091845d286bd7670324c868e",
    "m_Id": 4,
    "m_DisplayName": "Smooth Delta",
    "m_SlotType": 1,
    "m_Hidden": false,
    "m_ShaderOutputName": "Smooth Delta",
    "m_StageCapability": 3,
    "m_Value": 0.0,
    "m_DefaultValue": 0.0,
    "m_Labels": []
}

{
    "m_SGVersion": 0,
    "m_Type": "UnityEditor.ShaderGraph.BlockNode",
    "m_ObjectId": "4aa5cd8855784370825bebec6bd8e02e",
    "m_Group": {
        "m_Id": ""
    },
    "m_Name": "SurfaceDescription.Alpha",
    "m_DrawState": {
        "m_Expanded": true,
        "m_Position": {
            "serializedVersion": "2",
            "x": 0.0,
            "y": 0.0,
            "width": 0.0,
            "height": 0.0
        }
    },
    "m_Slots": [
        {
            "m_Id": "cb8976dfd5c44230bb2714ab965c3ee9"
        }
    ],
    "synonyms": [],
    "m_Precision": 0,
    "m_PreviewExpanded": true,
    "m_DismissedVersion": 0,
    "m_PreviewMode": 0,
    "m_CustomColors": {
        "m_SerializableColors": []
    },
    "m_SerializedDescriptor": "SurfaceDescription.Alpha"
}

{
    "m_SGVersion": 0,
    "m_Type": "UnityEditor.ShaderGraph.NormalMaterialSlot",
    "m_ObjectId": "5850c2111907495b95515842f5b8e0a9",
    "m_Id": 0,
    "m_DisplayName": "Normal (Tangent Space)",
    "m_SlotType": 0,
    "m_Hidden": false,
    "m_ShaderOutputName": "NormalTS",
    "m_StageCapability": 2,
    "m_Value": {
        "x": 0.0,
        "y": 0.0,
        "z": 0.0
    },
    "m_DefaultValue": {
        "x": 0.0,
        "y": 0.0,
        "z": 0.0
    },
    "m_Labels": [],
    "m_Space": 3
}

{
    "m_SGVersion": 0,
    "m_Type": "UnityEditor.ShaderGraph.TangentMaterialSlot",
    "m_ObjectId": "58eff5b787a14387896afc3c1605a9ee",
    "m_Id": 0,
    "m_DisplayName": "Tangent",
    "m_SlotType": 0,
    "m_Hidden": false,
    "m_ShaderOutputName": "Tangent",
    "m_StageCapability": 1,
    "m_Value": {
        "x": 0.0,
        "y": 0.0,
        "z": 0.0
    },
    "m_DefaultValue": {
        "x": 0.0,
        "y": 0.0,
        "z": 0.0
    },
    "m_Labels": [],
    "m_Space": 0
}

{
    "m_SGVersion": 0,
    "m_Type": "UnityEditor.ShaderGraph.BlockNode",
    "m_ObjectId": "5abbd0758fac4db1ae8fd68105471d54",
    "m_Group": {
        "m_Id": ""
    },
    "m_Name": "VertexDescription.Position",
    "m_DrawState": {
        "m_Expanded": true,
        "m_Position": {
            "serializedVersion": "2",
            "x": 0.0,
            "y": 0.0,
            "width": 0.0,
            "height": 0.0
        }
    },
    "m_Slots": [
        {
            "m_Id": "b7912a104e4946e798b9c663509dae31"
        }
    ],
    "synonyms": [],
    "m_Precision": 0,
    "m_PreviewExpanded": true,
    "m_DismissedVersion": 0,
    "m_PreviewMode": 0,
    "m_CustomColors": {
        "m_SerializableColors": []
    },
    "m_SerializedDescriptor": "VertexDescription.Position"
}

{
    "m_SGVersion": 0,
    "m_Type": "UnityEditor.ShaderGraph.DynamicValueMaterialSlot",
    "m_ObjectId": "69d2761c72084f49b8905a7fe1a7094b",
    "m_Id": 1,
    "m_DisplayName": "B",
    "m_SlotType": 0,
    "m_Hidden": false,
    "m_ShaderOutputName": "B",
    "m_StageCapability": 3,
    "m_Value": {
        "e00": 6.0,
        "e01": 2.0,
        "e02": 2.0,
        "e03": 2.0,
        "e10": 2.0,
        "e11": 2.0,
        "e12": 2.0,
        "e13": 2.0,
        "e20": 2.0,
        "e21": 2.0,
        "e22": 2.0,
        "e23": 2.0,
        "e30": 2.0,
        "e31": 2.0,
        "e32": 2.0,
        "e33": 2.0
    },
    "m_DefaultValue": {
        "e00": 1.0,
        "e01": 0.0,
        "e02": 0.0,
        "e03": 0.0,
        "e10": 0.0,
        "e11": 1.0,
        "e12": 0.0,
        "e13": 0.0,
        "e20": 0.0,
        "e21": 0.0,
        "e22": 1.0,
        "e23": 0.0,
        "e30": 0.0,
        "e31": 0.0,
        "e32": 0.0,
        "e33": 1.0
    }
}

{
    "m_SGVersion": 0,
    "m_Type": "UnityEditor.ShaderGraph.Vector1MaterialSlot",
    "m_ObjectId": "6b8575c3da114b4a8ea2db4cf6711aa8",
    "m_Id": 0,
    "m_DisplayName": "Smoothness",
    "m_SlotType": 0,
    "m_Hidden": false,
    "m_ShaderOutputName": "Smoothness",
    "m_StageCapability": 2,
    "m_Value": 0.5,
    "m_DefaultValue": 0.5,
    "m_Labels": []
}

{
    "m_SGVersion": 0,
    "m_Type": "UnityEditor.ShaderGraph.BlockNode",
    "m_ObjectId": "7106fb9d0a3d407db2256b18a022eed7",
    "m_Group": {
        "m_Id": ""
    },
    "m_Name": "SurfaceDescription.Smoothness",
    "m_DrawState": {
        "m_Expanded": true,
        "m_Position": {
            "serializedVersion": "2",
            "x": 0.0,
            "y": 0.0,
            "width": 0.0,
            "height": 0.0
        }
    },
    "m_Slots": [
        {
            "m_Id": "6b8575c3da114b4a8ea2db4cf6711aa8"
        }
    ],
    "synonyms": [],
    "m_Precision": 0,
    "m_PreviewExpanded": true,
    "m_DismissedVersion": 0,
    "m_PreviewMode": 0,
    "m_CustomColors": {
        "m_SerializableColors": []
    },
    "m_SerializedDescriptor": "SurfaceDescription.Smoothness"
}

{
    "m_SGVersion": 0,
    "m_Type": "UnityEditor.ShaderGraph.Vector1MaterialSlot",
    "m_ObjectId": "7241e3f3dced4a4a805225f9514f9be7",
    "m_Id": 3,
    "m_DisplayName": "Delta Time",
    "m_SlotType": 1,
    "m_Hidden": false,
    "m_ShaderOutputName": "Delta Time",
    "m_StageCapability": 3,
    "m_Value": 0.0,
    "m_DefaultValue": 0.0,
    "m_Labels": []
}

{
    "m_SGVersion": 1,
    "m_Type": "UnityEditor.ShaderGraph.Internal.Vector2ShaderProperty",
    "m_ObjectId": "72a18e37480644e788f8241d630eb9f5",
    "m_Guid": {
        "m_GuidSerialized": "52d311d1-7580-4152-9ea8-36a2b73e8ec5"
    },
    "m_Name": "X",
    "m_DefaultRefNameVersion": 1,
    "m_RefNameGeneratedByDisplayName": "X",
    "m_DefaultReferenceName": "_X",
    "m_OverrideReferenceName": "",
    "m_GeneratePropertyBlock": true,
    "m_UseCustomSlotLabel": false,
    "m_CustomSlotLabel": "",
    "m_DismissedVersion": 0,
    "m_Precision": 0,
    "overrideHLSLDeclaration": false,
    "hlslDeclarationOverride": 0,
    "m_Hidden": false,
    "m_Value": {
        "x": 10.0,
        "y": 10.0,
        "z": 0.0,
        "w": 0.0
    }
}

{
    "m_SGVersion": 0,
    "m_Type": "UnityEditor.ShaderGraph.BlockNode",
    "m_ObjectId": "748d89ae59cb4575960a5c4ba4986814",
    "m_Group": {
        "m_Id": ""
    },
    "m_Name": "SurfaceDescription.Emission",
    "m_DrawState": {
        "m_Expanded": true,
        "m_Position": {
            "serializedVersion": "2",
            "x": 0.0,
            "y": 0.0,
            "width": 0.0,
            "height": 0.0
        }
    },
    "m_Slots": [
        {
            "m_Id": "ee5a7b8c4616466c9e565bd398453641"
        }
    ],
    "synonyms": [],
    "m_Precision": 0,
    "m_PreviewExpanded": true,
    "m_DismissedVersion": 0,
    "m_PreviewMode": 0,
    "m_CustomColors": {
        "m_SerializableColors": []
    },
    "m_SerializedDescriptor": "SurfaceDescription.Emission"
}

{
    "m_SGVersion": 0,
    "m_Type": "UnityEditor.ShaderGraph.PropertyNode",
    "m_ObjectId": "78aa392d1fbb4a7fa4273aa5780bb14a",
    "m_Group": {
        "m_Id": ""
    },
    "m_Name": "Property",
    "m_DrawState": {
        "m_Expanded": true,
        "m_Position": {
            "serializedVersion": "2",
            "x": 612.0,
            "y": -708.0,
            "width": 108.79998779296875,
            "height": 33.60003662109375
        }
    },
    "m_Slots": [
        {
            "m_Id": "fae13fb1e7c04c4e869c75849304d792"
        }
    ],
    "synonyms": [],
    "m_Precision": 0,
    "m_PreviewExpanded": true,
    "m_DismissedVersion": 0,
    "m_PreviewMode": 0,
    "m_CustomColors": {
        "m_SerializableColors": []
    },
    "m_Property": {
        "m_Id": "b65be7c96f4e48968e9a0fdab4225857"
    }
}

{
    "m_SGVersion": 0,
    "m_Type": "UnityEditor.ShaderGraph.DynamicValueMaterialSlot",
    "m_ObjectId": "8996b7eac91c4521ba6571968b286fcb",
    "m_Id": 2,
    "m_DisplayName": "Out",
    "m_SlotType": 1,
    "m_Hidden": false,
    "m_ShaderOutputName": "Out",
    "m_StageCapability": 3,
    "m_Value": {
        "e00": 0.0,
        "e01": 0.0,
        "e02": 0.0,
        "e03": 0.0,
        "e10": 0.0,
        "e11": 0.0,
        "e12": 0.0,
        "e13": 0.0,
        "e20": 0.0,
        "e21": 0.0,
        "e22": 0.0,
        "e23": 0.0,
        "e30": 0.0,
        "e31": 0.0,
        "e32": 0.0,
        "e33": 0.0
    },
    "m_DefaultValue": {
        "e00": 1.0,
        "e01": 0.0,
        "e02": 0.0,
        "e03": 0.0,
        "e10": 0.0,
        "e11": 1.0,
        "e12": 0.0,
        "e13": 0.0,
        "e20": 0.0,
        "e21": 0.0,
        "e22": 1.0,
        "e23": 0.0,
        "e30": 0.0,
        "e31": 0.0,
        "e32": 0.0,
        "e33": 1.0
    }
}

{
    "m_SGVersion": 0,
    "m_Type": "UnityEditor.ShaderGraph.BlockNode",
    "m_ObjectId": "8acc139ea75d4ee5a3672bd716d0e2c1",
    "m_Group": {
        "m_Id": ""
    },
    "m_Name": "SurfaceDescription.Metallic",
    "m_DrawState": {
        "m_Expanded": true,
        "m_Position": {
            "serializedVersion": "2",
            "x": 0.0,
            "y": 0.0,
            "width": 0.0,
            "height": 0.0
        }
    },
    "m_Slots": [
        {
            "m_Id": "cd544179615e4ffbabf4654dd4b0b8c9"
        }
    ],
    "synonyms": [],
    "m_Precision": 0,
    "m_PreviewExpanded": true,
    "m_DismissedVersion": 0,
    "m_PreviewMode": 0,
    "m_CustomColors": {
        "m_SerializableColors": []
    },
    "m_SerializedDescriptor": "SurfaceDescription.Metallic"
}

{
    "m_SGVersion": 0,
    "m_Type": "UnityEditor.ShaderGraph.DynamicVectorMaterialSlot",
    "m_ObjectId": "8b516a1ccfe640ad8f7eb1acf4a99b13",
    "m_Id": 0,
    "m_DisplayName": "A",
    "m_SlotType": 0,
    "m_Hidden": false,
    "m_ShaderOutputName": "A",
    "m_StageCapability": 3,
    "m_Value": {
        "x": 0.0,
        "y": 0.0,
        "z": 0.0,
        "w": 0.0
    },
    "m_DefaultValue": {
        "x": 0.0,
        "y": 0.0,
        "z": 0.0,
        "w": 0.0
    }
}

{
    "m_SGVersion": 0,
    "m_Type": "UnityEditor.ShaderGraph.Vector1MaterialSlot",
    "m_ObjectId": "9446d055cc4d4881a01036409f8596ac",
    "m_Id": 4,
    "m_DisplayName": "Cells",
    "m_SlotType": 1,
    "m_Hidden": false,
    "m_ShaderOutputName": "Cells",
    "m_StageCapability": 3,
    "m_Value": 0.0,
    "m_DefaultValue": 0.0,
    "m_Labels": []
}

{
    "m_SGVersion": 2,
    "m_Type": "UnityEditor.Rendering.Universal.ShaderGraph.UniversalLitSubTarget",
    "m_ObjectId": "946d075acdc74a86a15d75b8ba3476b9",
    "m_WorkflowMode": 1,
    "m_NormalDropOffSpace": 0,
    "m_ClearCoat": false,
    "m_BlendModePreserveSpecular": true
}

{
    "m_SGVersion": 0,
    "m_Type": "UnityEditor.ShaderGraph.Vector1MaterialSlot",
    "m_ObjectId": "9b5804e6572147de97374c84a739fe15",
    "m_Id": 2,
    "m_DisplayName": "Cosine Time",
    "m_SlotType": 1,
    "m_Hidden": false,
    "m_ShaderOutputName": "Cosine Time",
    "m_StageCapability": 3,
    "m_Value": 0.0,
    "m_DefaultValue": 0.0,
    "m_Labels": []
}

{
    "m_SGVersion": 0,
    "m_Type": "UnityEditor.ShaderGraph.PowerNode",
    "m_ObjectId": "a2e415ab0eff483a81ce560723d0866a",
    "m_Group": {
        "m_Id": ""
    },
    "m_Name": "Power",
    "m_DrawState": {
        "m_Expanded": true,
        "m_Position": {
            "serializedVersion": "2",
            "x": 160.0000762939453,
            "y": -392.0,
            "width": 207.9999237060547,
            "height": 301.6000061035156
        }
    },
    "m_Slots": [
        {
            "m_Id": "8b516a1ccfe640ad8f7eb1acf4a99b13"
        },
        {
            "m_Id": "3184d514e080478cb262676181f9fcc7"
        },
        {
            "m_Id": "2479afcde9844d43914aea39d6a5a209"
        }
    ],
    "synonyms": [],
    "m_Precision": 0,
    "m_PreviewExpanded": true,
    "m_DismissedVersion": 0,
    "m_PreviewMode": 0,
    "m_CustomColors": {
        "m_SerializableColors": []
    }
}

{
    "m_SGVersion": 0,
    "m_Type": "UnityEditor.ShaderGraph.MultiplyNode",
    "m_ObjectId": "adc673f682b04347aa1b4cc4bf3cbb24",
    "m_Group": {
        "m_Id": ""
    },
    "m_Name": "Multiply",
    "m_DrawState": {
        "m_Expanded": true,
        "m_Position": {
            "serializedVersion": "2",
            "x": -424.0,
            "y": -392.0,
            "width": 208.00001525878907,
            "height": 301.60003662109377
        }
    },
    "m_Slots": [
        {
            "m_Id": "1e496d3f56c34b7c8e99524c2546bf0c"
        },
        {
            "m_Id": "69d2761c72084f49b8905a7fe1a7094b"
        },
        {
            "m_Id": "8996b7eac91c4521ba6571968b286fcb"
        }
    ],
    "synonyms": [
        "multiplication",
        "times",
        "x"
    ],
    "m_Precision": 0,
    "m_PreviewExpanded": true,
    "m_DismissedVersion": 0,
    "m_PreviewMode": 0,
    "m_CustomColors": {
        "m_SerializableColors": []
    }
}

{
    "m_SGVersion": 3,
    "m_Type": "UnityEditor.ShaderGraph.Internal.ColorShaderProperty",
    "m_ObjectId": "b65be7c96f4e48968e9a0fdab4225857",
    "m_Guid": {
        "m_GuidSerialized": "f0f035e6-8097-40d7-8558-87c386e0bece"
    },
    "m_Name": "Water",
    "m_DefaultRefNameVersion": 1,
    "m_RefNameGeneratedByDisplayName": "Water",
    "m_DefaultReferenceName": "_Water",
    "m_OverrideReferenceName": "",
    "m_GeneratePropertyBlock": true,
    "m_UseCustomSlotLabel": false,
    "m_CustomSlotLabel": "",
    "m_DismissedVersion": 0,
    "m_Precision": 0,
    "overrideHLSLDeclaration": false,
    "hlslDeclarationOverride": 2,
    "m_Hidden": false,
    "m_Value": {
        "r": 0.0,
        "g": 0.7973289489746094,
        "b": 1.0,
        "a": 0.0
    },
    "isMainColor": false,
    "m_ColorMode": 0
}

{
    "m_SGVersion": 0,
    "m_Type": "UnityEditor.ShaderGraph.PositionMaterialSlot",
    "m_ObjectId": "b7912a104e4946e798b9c663509dae31",
    "m_Id": 0,
    "m_DisplayName": "Position",
    "m_SlotType": 0,
    "m_Hidden": false,
    "m_ShaderOutputName": "Position",
    "m_StageCapability": 1,
    "m_Value": {
        "x": 0.0,
        "y": 0.0,
        "z": 0.0
    },
    "m_DefaultValue": {
        "x": 0.0,
        "y": 0.0,
        "z": 0.0
    },
    "m_Labels": [],
    "m_Space": 0
}

{
    "m_SGVersion": 0,
    "m_Type": "UnityEditor.ShaderGraph.Vector1MaterialSlot",
    "m_ObjectId": "b95a86d572cc4736b9c34930f83ecacb",
    "m_Id": 1,
    "m_DisplayName": "Sine Time",
    "m_SlotType": 1,
    "m_Hidden": false,
    "m_ShaderOutputName": "Sine Time",
    "m_StageCapability": 3,
    "m_Value": 0.0,
    "m_DefaultValue": 0.0,
    "m_Labels": []
}

{
    "m_SGVersion": 0,
    "m_Type": "UnityEditor.ShaderGraph.MultiplyNode",
    "m_ObjectId": "b9a023cba13248a4a94d18384b52746e",
    "m_Group": {
        "m_Id": ""
    },
    "m_Name": "Multiply",
    "m_DrawState": {
        "m_Expanded": true,
        "m_Position": {
            "serializedVersion": "2",
            "x": 438.40008544921877,
            "y": -392.0,
            "width": 207.99993896484376,
            "height": 301.6000061035156
        }
    },
    "m_Slots": [
        {
            "m_Id": "e52402569abc48fc8898d1ff6da6d75b"
        },
        {
            "m_Id": "e16959cc27794d28b98373e8411c54fd"
        },
        {
            "m_Id": "caa22edc139243afb9d036f6e084a799"
        }
    ],
    "synonyms": [
        "multiplication",
        "times",
        "x"
    ],
    "m_Precision": 0,
    "m_PreviewExpanded": true,
    "m_DismissedVersion": 0,
    "m_PreviewMode": 0,
    "m_CustomColors": {
        "m_SerializableColors": []
    }
}

{
    "m_SGVersion": 0,
    "m_Type": "UnityEditor.ShaderGraph.Vector4MaterialSlot",
    "m_ObjectId": "ba73bcf828864b14827859b1b397d862",
    "m_Id": 0,
    "m_DisplayName": "Ripple",
    "m_SlotType": 1,
    "m_Hidden": false,
    "m_ShaderOutputName": "Out",
    "m_StageCapability": 3,
    "m_Value": {
        "x": 0.0,
        "y": 0.0,
        "z": 0.0,
        "w": 0.0
    },
    "m_DefaultValue": {
        "x": 0.0,
        "y": 0.0,
        "z": 0.0,
        "w": 0.0
    },
    "m_Labels": []
}

{
    "m_SGVersion": 0,
    "m_Type": "UnityEditor.ShaderGraph.TimeNode",
    "m_ObjectId": "c28e1dc494d5435da04df11b91a77d9c",
    "m_Group": {
        "m_Id": ""
    },
    "m_Name": "Time",
    "m_DrawState": {
        "m_Expanded": true,
        "m_Position": {
            "serializedVersion": "2",
            "x": -649.5999755859375,
            "y": -391.99993896484377,
            "width": 124.00006103515625,
            "height": 172.7999725341797
        }
    },
    "m_Slots": [
        {
            "m_Id": "43f45febcae34cbc860cb44bb43b873f"
        },
        {
            "m_Id": "b95a86d572cc4736b9c34930f83ecacb"
        },
        {
            "m_Id": "9b5804e6572147de97374c84a739fe15"
        },
        {
            "m_Id": "7241e3f3dced4a4a805225f9514f9be7"
        },
        {
            "m_Id": "4a3403b7091845d286bd7670324c868e"
        }
    ],
    "synonyms": [],
    "m_Precision": 0,
    "m_PreviewExpanded": true,
    "m_DismissedVersion": 0,
    "m_PreviewMode": 0,
    "m_CustomColors": {
        "m_SerializableColors": []
    }
}

{
    "m_SGVersion": 0,
    "m_Type": "UnityEditor.ShaderGraph.UVMaterialSlot",
    "m_ObjectId": "ca49ddec51ee43b7adbefd23027f0e3b",
    "m_Id": 0,
    "m_DisplayName": "UV",
    "m_SlotType": 0,
    "m_Hidden": false,
    "m_ShaderOutputName": "UV",
    "m_StageCapability": 3,
    "m_Value": {
        "x": 0.0,
        "y": 0.0
    },
    "m_DefaultValue": {
        "x": 0.0,
        "y": 0.0
    },
    "m_Labels": [],
    "m_Channel": 0
}

{
    "m_SGVersion": 0,
    "m_Type": "UnityEditor.ShaderGraph.Vector1MaterialSlot",
    "m_ObjectId": "ca865dc89ec9493d82bf526ece767c89",
    "m_Id": 2,
    "m_DisplayName": "CellDensity",
    "m_SlotType": 0,
    "m_Hidden": false,
    "m_ShaderOutputName": "CellDensity",
    "m_StageCapability": 3,
    "m_Value": 5.0,
    "m_DefaultValue": 5.0,
    "m_Labels": []
}

{
    "m_SGVersion": 0,
    "m_Type": "UnityEditor.ShaderGraph.DynamicValueMaterialSlot",
    "m_ObjectId": "caa22edc139243afb9d036f6e084a799",
    "m_Id": 2,
    "m_DisplayName": "Out",
    "m_SlotType": 1,
    "m_Hidden": false,
    "m_ShaderOutputName": "Out",
    "m_StageCapability": 3,
    "m_Value": {
        "e00": 0.0,
        "e01": 0.0,
        "e02": 0.0,
        "e03": 0.0,
        "e10": 0.0,
        "e11": 0.0,
        "e12": 0.0,
        "e13": 0.0,
        "e20": 0.0,
        "e21": 0.0,
        "e22": 0.0,
        "e23": 0.0,
        "e30": 0.0,
        "e31": 0.0,
        "e32": 0.0,
        "e33": 0.0
    },
    "m_DefaultValue": {
        "e00": 1.0,
        "e01": 0.0,
        "e02": 0.0,
        "e03": 0.0,
        "e10": 0.0,
        "e11": 1.0,
        "e12": 0.0,
        "e13": 0.0,
        "e20": 0.0,
        "e21": 0.0,
        "e22": 1.0,
        "e23": 0.0,
        "e30": 0.0,
        "e31": 0.0,
        "e32": 0.0,
        "e33": 1.0
    }
}

{
    "m_SGVersion": 0,
    "m_Type": "UnityEditor.ShaderGraph.Vector1MaterialSlot",
    "m_ObjectId": "cb8976dfd5c44230bb2714ab965c3ee9",
    "m_Id": 0,
    "m_DisplayName": "Alpha",
    "m_SlotType": 0,
    "m_Hidden": false,
    "m_ShaderOutputName": "Alpha",
    "m_StageCapability": 2,
    "m_Value": 0.800000011920929,
    "m_DefaultValue": 1.0,
    "m_Labels": []
}

{
    "m_SGVersion": 0,
    "m_Type": "UnityEditor.ShaderGraph.Vector1MaterialSlot",
    "m_ObjectId": "cd11037ced034de2a4be23b7c9cc3971",
    "m_Id": 1,
    "m_DisplayName": "AngleOffset",
    "m_SlotType": 0,
    "m_Hidden": false,
    "m_ShaderOutputName": "AngleOffset",
    "m_StageCapability": 3,
    "m_Value": 2.0,
    "m_DefaultValue": 2.0,
    "m_Labels": []
}

{
    "m_SGVersion": 0,
    "m_Type": "UnityEditor.ShaderGraph.Vector1MaterialSlot",
    "m_ObjectId": "cd544179615e4ffbabf4654dd4b0b8c9",
    "m_Id": 0,
    "m_DisplayName": "Metallic",
    "m_SlotType": 0,
    "m_Hidden": false,
    "m_ShaderOutputName": "Metallic",
    "m_StageCapability": 2,
    "m_Value": 0.0,
    "m_DefaultValue": 0.0,
    "m_Labels": []
}

{
    "m_SGVersion": 3,
    "m_Type": "UnityEditor.ShaderGraph.Internal.ColorShaderProperty",
    "m_ObjectId": "d4e91c1da7c24cbfb73cc75e1669b2a2",
    "m_Guid": {
        "m_GuidSerialized": "f7ebdba7-2c0b-4da9-b51c-831abb3cc6dc"
    },
    "m_Name": "Ripple",
    "m_DefaultRefNameVersion": 1,
    "m_RefNameGeneratedByDisplayName": "Ripple",
    "m_DefaultReferenceName": "_Ripple",
    "m_OverrideReferenceName": "",
    "m_GeneratePropertyBlock": true,
    "m_UseCustomSlotLabel": false,
    "m_CustomSlotLabel": "",
    "m_DismissedVersion": 0,
    "m_Precision": 2,
    "overrideHLSLDeclaration": false,
    "hlslDeclarationOverride": 0,
    "m_Hidden": false,
    "m_Value": {
        "r": 0.0,
        "g": 0.8878128528594971,
        "b": 1.0,
        "a": 1.0
    },
    "isMainColor": false,
    "m_ColorMode": 1
}

{
    "m_SGVersion": 0,
    "m_Type": "UnityEditor.ShaderGraph.AddNode",
    "m_ObjectId": "d778360b4f5b485fa9f2a9ea83dbd1af",
    "m_Group": {
        "m_Id": ""
    },
    "m_Name": "Add",
    "m_DrawState": {
        "m_Expanded": true,
        "m_Position": {
            "serializedVersion": "2",
            "x": 773.5999755859375,
            "y": -471.9999694824219,
            "width": 208.0,
            "height": 301.60003662109377
        }
    },
    "m_Slots": [
        {
            "m_Id": "17716ca6417b4c898fb1e55a3e6a3bf0"
        },
        {
            "m_Id": "28b0ca7011714c498035dc46ccf19fc9"
        },
        {
            "m_Id": "1efbf71e5c454cffa9c968ff1d59a7c7"
        }
    ],
    "synonyms": [
        "addition",
        "sum",
        "plus"
    ],
    "m_Precision": 0,
    "m_PreviewExpanded": true,
    "m_DismissedVersion": 0,
    "m_PreviewMode": 0,
    "m_CustomColors": {
        "m_SerializableColors": []
    }
}

{
    "m_SGVersion": 0,
    "m_Type": "UnityEditor.ShaderGraph.CategoryData",
    "m_ObjectId": "d9680b00c61b44d0876f1085aadd7afd",
    "m_Name": "",
    "m_ChildObjectList": [
        {
            "m_Id": "b65be7c96f4e48968e9a0fdab4225857"
        },
        {
            "m_Id": "72a18e37480644e788f8241d630eb9f5"
        },
        {
            "m_Id": "f118e8ca36044adfbdf267d13b0482c8"
        },
        {
            "m_Id": "160c6a160d8e419c912c2e8f9306cd87"
        },
        {
            "m_Id": "d4e91c1da7c24cbfb73cc75e1669b2a2"
        }
    ]
}

{
    "m_SGVersion": 1,
    "m_Type": "UnityEditor.Rendering.Universal.ShaderGraph.UniversalTarget",
    "m_ObjectId": "dc4ea0f307b849af9723f5581b839d65",
    "m_Datas": [],
    "m_ActiveSubTarget": {
        "m_Id": "946d075acdc74a86a15d75b8ba3476b9"
    },
    "m_AllowMaterialOverride": false,
    "m_SurfaceType": 1,
    "m_ZTestMode": 4,
    "m_ZWriteControl": 0,
    "m_AlphaMode": 0,
    "m_RenderFace": 2,
    "m_AlphaClip": false,
    "m_CastShadows": true,
    "m_ReceiveShadows": true,
    "m_SupportsLODCrossFade": false,
    "m_CustomEditorGUI": "",
    "m_SupportVFX": false
}

{
    "m_SGVersion": 0,
    "m_Type": "UnityEditor.ShaderGraph.PropertyNode",
    "m_ObjectId": "dd34c117244b45b984bb6bb3d3ce304b",
    "m_Group": {
        "m_Id": ""
    },
    "m_Name": "Property",
    "m_DrawState": {
        "m_Expanded": true,
        "m_Position": {
            "serializedVersion": "2",
            "x": 313.60003662109377,
            "y": -49.600006103515628,
            "width": 108.7999267578125,
            "height": 33.59996032714844
        }
    },
    "m_Slots": [
        {
            "m_Id": "ba73bcf828864b14827859b1b397d862"
        }
    ],
    "synonyms": [],
    "m_Precision": 2,
    "m_PreviewExpanded": true,
    "m_DismissedVersion": 0,
    "m_PreviewMode": 0,
    "m_CustomColors": {
        "m_SerializableColors": []
    },
    "m_Property": {
        "m_Id": "d4e91c1da7c24cbfb73cc75e1669b2a2"
    }
}

{
    "m_SGVersion": 0,
    "m_Type": "UnityEditor.ShaderGraph.Vector2MaterialSlot",
    "m_ObjectId": "e14998a748354979b7c273e8c0d4fe00",
    "m_Id": 0,
    "m_DisplayName": "Y",
    "m_SlotType": 1,
    "m_Hidden": false,
    "m_ShaderOutputName": "Out",
    "m_StageCapability": 3,
    "m_Value": {
        "x": 0.0,
        "y": 0.0
    },
    "m_DefaultValue": {
        "x": 0.0,
        "y": 0.0
    },
    "m_Labels": []
}

{
    "m_SGVersion": 0,
    "m_Type": "UnityEditor.ShaderGraph.DynamicValueMaterialSlot",
    "m_ObjectId": "e16959cc27794d28b98373e8411c54fd",
    "m_Id": 1,
    "m_DisplayName": "B",
    "m_SlotType": 0,
    "m_Hidden": false,
    "m_ShaderOutputName": "B",
    "m_StageCapability": 3,
    "m_Value": {
        "e00": 2.0,
        "e01": 2.0,
        "e02": 2.0,
        "e03": 2.0,
        "e10": 2.0,
        "e11": 2.0,
        "e12": 2.0,
        "e13": 2.0,
        "e20": 2.0,
        "e21": 2.0,
        "e22": 2.0,
        "e23": 2.0,
        "e30": 2.0,
        "e31": 2.0,
        "e32": 2.0,
        "e33": 2.0
    },
    "m_DefaultValue": {
        "e00": 1.0,
        "e01": 0.0,
        "e02": 0.0,
        "e03": 0.0,
        "e10": 0.0,
        "e11": 1.0,
        "e12": 0.0,
        "e13": 0.0,
        "e20": 0.0,
        "e21": 0.0,
        "e22": 1.0,
        "e23": 0.0,
        "e30": 0.0,
        "e31": 0.0,
        "e32": 0.0,
        "e33": 1.0
    }
}

{
    "m_SGVersion": 0,
    "m_Type": "UnityEditor.ShaderGraph.DynamicValueMaterialSlot",
    "m_ObjectId": "e52402569abc48fc8898d1ff6da6d75b",
    "m_Id": 0,
    "m_DisplayName": "A",
    "m_SlotType": 0,
    "m_Hidden": false,
    "m_ShaderOutputName": "A",
    "m_StageCapability": 3,
    "m_Value": {
        "e00": 0.0,
        "e01": 0.0,
        "e02": 0.0,
        "e03": 0.0,
        "e10": 0.0,
        "e11": 0.0,
        "e12": 0.0,
        "e13": 0.0,
        "e20": 0.0,
        "e21": 0.0,
        "e22": 0.0,
        "e23": 0.0,
        "e30": 0.0,
        "e31": 0.0,
        "e32": 0.0,
        "e33": 0.0
    },
    "m_DefaultValue": {
        "e00": 1.0,
        "e01": 0.0,
        "e02": 0.0,
        "e03": 0.0,
        "e10": 0.0,
        "e11": 1.0,
        "e12": 0.0,
        "e13": 0.0,
        "e20": 0.0,
        "e21": 0.0,
        "e22": 1.0,
        "e23": 0.0,
        "e30": 0.0,
        "e31": 0.0,
        "e32": 0.0,
        "e33": 1.0
    }
}

{
    "m_SGVersion": 0,
    "m_Type": "UnityEditor.ShaderGraph.BlockNode",
    "m_ObjectId": "ed09fb8425714c0ea6f50786281d22e9",
    "m_Group": {
        "m_Id": ""
    },
    "m_Name": "SurfaceDescription.BaseColor",
    "m_DrawState": {
        "m_Expanded": true,
        "m_Position": {
            "serializedVersion": "2",
            "x": 0.0,
            "y": 0.0,
            "width": 0.0,
            "height": 0.0
        }
    },
    "m_Slots": [
        {
            "m_Id": "30a1e18a84e540209a4ee47c0f7ec993"
        }
    ],
    "synonyms": [],
    "m_Precision": 0,
    "m_PreviewExpanded": true,
    "m_DismissedVersion": 0,
    "m_PreviewMode": 0,
    "m_CustomColors": {
        "m_SerializableColors": []
    },
    "m_SerializedDescriptor": "SurfaceDescription.BaseColor"
}

{
    "m_SGVersion": 0,
    "m_Type": "UnityEditor.ShaderGraph.PropertyNode",
    "m_ObjectId": "ee4c3c77904f482f825f874882cb2b79",
    "m_Group": {
        "m_Id": ""
    },
    "m_Name": "Property",
    "m_DrawState": {
        "m_Expanded": true,
        "m_Position": {
            "serializedVersion": "2",
            "x": -305.5999755859375,
            "y": -66.40000915527344,
            "width": 135.19996643066407,
            "height": 33.60000991821289
        }
    },
    "m_Slots": [
        {
            "m_Id": "e14998a748354979b7c273e8c0d4fe00"
        }
    ],
    "synonyms": [],
    "m_Precision": 0,
    "m_PreviewExpanded": true,
    "m_DismissedVersion": 0,
    "m_PreviewMode": 0,
    "m_CustomColors": {
        "m_SerializableColors": []
    },
    "m_Property": {
        "m_Id": "f118e8ca36044adfbdf267d13b0482c8"
    }
}

{
    "m_SGVersion": 0,
    "m_Type": "UnityEditor.ShaderGraph.ColorRGBMaterialSlot",
    "m_ObjectId": "ee5a7b8c4616466c9e565bd398453641",
    "m_Id": 0,
    "m_DisplayName": "Emission",
    "m_SlotType": 0,
    "m_Hidden": false,
    "m_ShaderOutputName": "Emission",
    "m_StageCapability": 2,
    "m_Value": {
        "x": 0.0,
        "y": 0.0,
        "z": 0.0
    },
    "m_DefaultValue": {
        "x": 0.0,
        "y": 0.0,
        "z": 0.0
    },
    "m_Labels": [],
    "m_ColorMode": 1,
    "m_DefaultColor": {
        "r": 0.0,
        "g": 0.0,
        "b": 0.0,
        "a": 1.0
    }
}

{
    "m_SGVersion": 1,
    "m_Type": "UnityEditor.ShaderGraph.Internal.Vector2ShaderProperty",
    "m_ObjectId": "f118e8ca36044adfbdf267d13b0482c8",
    "m_Guid": {
        "m_GuidSerialized": "6d89a22e-e181-49e4-9cfe-37f9fbaa451f"
    },
    "m_Name": "Y",
    "m_DefaultRefNameVersion": 1,
    "m_RefNameGeneratedByDisplayName": "Y",
    "m_DefaultReferenceName": "_Y",
    "m_OverrideReferenceName": "",
    "m_GeneratePropertyBlock": true,
    "m_UseCustomSlotLabel": false,
    "m_CustomSlotLabel": "",
    "m_DismissedVersion": 0,
    "m_Precision": 0,
    "overrideHLSLDeclaration": false,
    "hlslDeclarationOverride": 0,
    "m_Hidden": false,
    "m_Value": {
        "x": 10.0,
        "y": 10.0,
        "z": 0.0,
        "w": 0.0
    }
}

{
    "m_SGVersion": 0,
    "m_Type": "UnityEditor.ShaderGraph.Vector4MaterialSlot",
    "m_ObjectId": "fae13fb1e7c04c4e869c75849304d792",
    "m_Id": 0,
    "m_DisplayName": "Water",
    "m_SlotType": 1,
    "m_Hidden": false,
    "m_ShaderOutputName": "Out",
    "m_StageCapability": 3,
    "m_Value": {
        "x": 0.0,
        "y": 0.0,
        "z": 0.0,
        "w": 0.0
    },
    "m_DefaultValue": {
        "x": 0.0,
        "y": 0.0,
        "z": 0.0,
        "w": 0.0
    },
    "m_Labels": []
}

